{
  "sdk": {
    "name": "sentry.javascript.browser",
    "version": "5.7.1",
    "packages": [
      {
        "name": "npm:@sentry/browser",
        "version": "5.7.1"
      }
    ],
    "integrations": [
      "InboundFilters",
      "FunctionToString",
      "TryCatch",
      "Breadcrumbs",
      "GlobalHandlers",
      "LinkedErrors",
      "UserAgent",
      "Dedupe",
      "ExtraErrorData",
      "ReportingObserver",
      "RewriteFrames",
      "Vue"
    ]
  },
  "level": "error",
  "request": {
    "url": "http://localhost:5444/",
    "headers": {
      "User-Agent": "Mozilla/5.0 (Macintosh; Intel Mac OS X 10.15; rv:91.0) Gecko/20100101 Firefox/91.0"
    }
  },
  "event_id": "6a32dc45cd924196930e06aa21b48c8d",
  "platform": "javascript",
  "exception": {
    "values": [
      {
        "type": "TypeError",
        "value": "Cannot read property 'filter' of undefined",
        "mechanism": {
          "type": "generic",
          "handled": true
        },
        "stacktrace": {
          "frames": [
            {
              "colno": 34,
              "in_app": true,
              "lineno": 6395,
              "filename": "webpack-internal:///./node_modules/vue/dist/vue.runtime.esm.js",
              "function": "hydrate"
            },
            {
              "colno": 57,
              "in_app": true,
              "lineno": 6362,
              "filename": "webpack-internal:///./node_modules/vue/dist/vue.runtime.esm.js",
              "function": "hydrate"
            },
            {
              "colno": 13,
              "in_app": true,
              "lineno": 3115,
              "filename": "webpack-internal:///./node_modules/vue/dist/vue.runtime.esm.js",
              "function": "init"
            },
            {
              "colno": 10,
              "in_app": true,
              "lineno": 8399,
              "filename": "webpack-internal:///./node_modules/vue/dist/vue.runtime.esm.js",
              "function": "Vue.prototype.$mount"
            },
            {
              "colno": 3,
              "in_app": true,
              "lineno": 4061,
              "filename": "webpack-internal:///./node_modules/vue/dist/vue.runtime.esm.js",
              "function": "mountComponent"
            },
            {
              "colno": 12,
              "in_app": true,
              "lineno": 4456,
              "filename": "webpack-internal:///./node_modules/vue/dist/vue.runtime.esm.js",
              "function": "Watcher"
            },
            {
              "colno": 25,
              "in_app": true,
              "lineno": 4467,
              "filename": "webpack-internal:///./node_modules/vue/dist/vue.runtime.esm.js",
              "function": "get"
            },
            {
              "colno": 10,
              "in_app": true,
              "lineno": 4048,
              "filename": "webpack-internal:///./node_modules/vue/dist/vue.runtime.esm.js",
              "function": "updateComponent"
            },
            {
              "colno": 19,
              "in_app": true,
              "lineno": 3933,
              "filename": "webpack-internal:///./node_modules/vue/dist/vue.runtime.esm.js",
              "function": "lifecycleMixin/Vue.prototype._update"
            },
            {
              "colno": 24,
              "in_app": true,
              "lineno": 6477,
              "filename": "webpack-internal:///./node_modules/vue/dist/vue.runtime.esm.js",
              "function": "patch"
            },
            {
              "colno": 34,
              "in_app": true,
              "lineno": 6395,
              "filename": "webpack-internal:///./node_modules/vue/dist/vue.runtime.esm.js",
              "function": "hydrate"
            },
            {
              "colno": 64,
              "in_app": true,
              "lineno": 78,
              "filename": "webpack-internal:///./node_modules/babel-loader/lib/index.js?!./node_modules/vue-loader/lib/index.js?!./pages/index.vue?vue&type=script&lang=js&",
              "function": "data"
            }
          ]
        }
      }
    ]
  },
  "environment": "development"
}
